…
``` r
Long <- all7 %>%
  pivot_longer(a_memorig:g_vote6, names_to = "variable", values_to = "value") %>%
  separate(variable, into = c("wave", "variable"), sep="_") %>%
  pivot_wider(names_from = "variable", values_from = "value")
```

    ## Warning: Expected 2 pieces. Additional pieces discarded in 1168468 rows [2, 3,
    ## 6, 7, 10, 11, 14, 15, 18, 19, 22, 23, 26, 27, 30, 31, 34, 35, 38, 39, ...].

``` r
Long
```

    ## # A tibble: 584,234 x 6
    ##        pidp wave  memorig   sex   age vote6
    ##       <int> <chr>   <int> <int> <int> <int>
    ##  1 68001367 a           1     1    39     3
    ##  2 68001367 b          NA    NA    NA    NA
    ##  3 68001367 c          NA    NA    NA    NA
    ##  4 68001367 d          NA    NA    NA    NA
    ##  5 68001367 e          NA    NA    NA    NA
    ##  6 68001367 f          NA    NA    NA    NA
    ##  7 68001367 g          NA    NA    NA    NA
    ##  8 68004087 a           1     1    59     2
    ##  9 68004087 b           1     1    60     2
    ## 10 68004087 c           1     1    61     2
    ## # … with 584,224 more rows
…
Long
```

    ## # A tibble: 218,015 x 7
    ##        pidp wave  memorig   sex   age vote6 sex_dv
    ##       <int> <chr>   <int> <int> <int> <dbl> <chr> 
    ##  1 68001367 a           1     1    39     3 male  
    ##  2 68004087 a           1     1    59     2 male  
    ##  3 68004087 b           1     1    60     2 male  
    ##  4 68004087 c           1     1    61     2 male  
    ##  5 68004087 d           1     1    62     1 male  
    ##  6 68004087 e           1     1    63     2 male  
    ##  7 68004087 f           1     1    64     2 male  
    ##  8 68004087 g           1     1    65     2 male  
    ##  9 68006127 a           1     2    39     4 female
    ## 10 68006127 b           1     2    40     4 female
    ## # … with 218,005 more rows
…
1.  To simplify interpretation, keep only the respondents with non-missing values for political interest in all seven waves.

``` r
# 1 : Filter out incompletes

Long <- Long %>%
  group_by(pidp) %>%
  filter(!is.na(vote6)) %>%
  filter(length(pidp[vote6]) == 7)

Long
```

    ## # A tibble: 103,747 x 7
    ## # Groups:   pidp [14,821]
    ##        pidp wave  memorig   sex   age vote6 sex_dv
    ##       <int> <chr>   <int> <int> <int> <dbl> <chr> 
    ##  1 68004087 a           1     1    59     2 male  
    ##  2 68004087 b           1     1    60     2 male  
    ##  3 68004087 c           1     1    61     2 male  
    ##  4 68004087 d           1     1    62     1 male  
    ##  5 68004087 e           1     1    63     2 male  
    ##  6 68004087 f           1     1    64     2 male  
    ##  7 68004087 g           1     1    65     2 male  
    ##  8 68006127 a           1     2    39     4 female
    ##  9 68006127 b           1     2    40     4 female
    ## 10 68006127 c           1     2    41     4 female
    ## # … with 103,737 more rows
…
Long
```

    ## # A tibble: 103,747 x 8
    ## # Groups:   pidp [14,821]
    ##        pidp wave  memorig   sex   age vote6 sex_dv delta
    ##       <int> <chr>   <int> <int> <int> <dbl> <chr>  <dbl>
    ##  1 68004087 a           1     1    59     2 male       2
    ##  2 68004087 b           1     1    60     2 male       2
    ##  3 68004087 c           1     1    61     2 male       2
    ##  4 68004087 d           1     1    62     1 male       2
    ##  5 68004087 e           1     1    63     2 male       2
    ##  6 68004087 f           1     1    64     2 male       2
    ##  7 68004087 g           1     1    65     2 male       2
    ##  8 68006127 a           1     2    39     4 female     0
    ##  9 68006127 b           1     2    40     4 female     0
    ## 10 68006127 c           1     2    41     4 female     0
    ## # … with 103,737 more rows
…
